GoF Test Power Analysis
…
df_power_sim = rbind(df.results_t,df.results_exp,df.results_chi,df.results_unif)

# compute the power
power_tests = df_power_sim %>% 
  group_by(dist,n) %>% 
  summarise_all(mean,na.rm=TRUE)
power_tests

# A tibble: 32 × 7
# Groups:   dist [4]
   dist  n        SW    KS    LF `Chi.X-squared`  Pear
   <chr> <fct> <dbl> <dbl> <dbl>           <dbl> <dbl>
 1 chi3  5     0.108 0     0.088           0.191 0.058
 2 chi3  10    0.314 0.003 0.21            0.264 0.294
 3 chi3  20    0.646 0.009 0.384           0.478 0.412
 4 chi3  40    0.944 0.086 0.718           0.748 0.732
 5 chi3  80    1     0.395 0.978           0.944 0.985
 6 chi3  160   1     0.915 1               1     1    
 7 chi3  320   1     1     1               1     1    
 8 chi3  1000  1     1     1               1     1    
 9 exp1  5     0.168 0     0.135           0.191 0.097
10 exp1  10    0.431 0.001 0.263           0.237 0.375
# … with 22 more rows
…
